#div1 {

height: 150px;

width: 400px;

margin: 20px;

border: 1px solid red;

padding: 10px;

}

-Total height: 150+20+1+10+20+1+10 = 212px
-Total width: 400+20+1+10+20+1+10 = 462px
-Browser calculated height: 150+1+10+1+10 = 172px
-Browser calculated width: 400+1+10+1+10 = 422px
